…
```r
#summary of steps taken per day (total, mean, median)
summary_steps
```

```
## # A tibble: 53 x 4
##          date total_steps mean_steps median_steps
##        <fctr>       <int>      <dbl>        <dbl>
##  1 2012-10-02         126    0.43750            0
##  2 2012-10-03       11352   39.41667            0
##  3 2012-10-04       12116   42.06944            0
##  4 2012-10-05       13294   46.15972            0
##  5 2012-10-06       15420   53.54167            0
##  6 2012-10-07       11015   38.24653            0
##  7 2012-10-09       12811   44.48264            0
##  8 2012-10-10        9900   34.37500            0
##  9 2012-10-11       10304   35.77778            0
## 10 2012-10-12       17382   60.35417            0
## # ... with 43 more rows
```
…
